…
``` r
# Note that the :: method is redundant here
# because we have already loaded the {tidyverse}
# and {readr} is included in this.
# However, I am using this method to make you
# aware of the specific package the read_csv
# function comes from.

college_recent_grads <- readr::read_csv("data/recent-grads.csv")

college_recent_grads
```

    ## # A tibble: 173 x 21
    ##     rank major_code major           major_category total sample_size   men women
    ##    <dbl>      <dbl> <chr>           <chr>          <dbl>       <dbl> <dbl> <dbl>
    ##  1     1       2419 Petroleum Engi… Engineering     2339          36  2057   282
    ##  2     2       2416 Mining And Min… Engineering      756           7   679    77
    ##  3     3       2415 Metallurgical … Engineering      856           3   725   131
    ##  4     4       2417 Naval Architec… Engineering     1258          16  1123   135
    ##  5     5       2405 Chemical Engin… Engineering    32260         289 21239 11021
    ##  6     6       2418 Nuclear Engine… Engineering     2573          17  2200   373
    ##  7     7       6202 Actuarial Scie… Business        3777          51  2110  1667
    ##  8     8       5001 Astronomy And … Physical Scie…  1792          10   832   960
    ##  9     9       2414 Mechanical Eng… Engineering    91227        1029 80320 10907
    ## 10    10       2408 Electrical Eng… Engineering    81527         631 65511 16016
    ## # … with 163 more rows, and 13 more variables: sharewomen <dbl>,
    ## #   employed <dbl>, employed_fulltime <dbl>, employed_parttime <dbl>,
    ## #   employed_fulltime_yearround <dbl>, unemployed <dbl>,
    ## #   unemployment_rate <dbl>, p25th <dbl>, median <dbl>, p75th <dbl>,
    ## #   college_jobs <dbl>, non_college_jobs <dbl>, low_wage_jobs <dbl>
…
